{"pipeline":
  [
    {
      "name": "stage",
      "script": "echo This is the value of the first experiment param; 2;"
    },
    {
      "name": "make_html",
      "script": "cp experiments/report_with_experiment_spec/template/conf.py;"
    }
  ]
}
